{
      "ADDRESS": "localhost",
      "PORT": 57110,
      "PORT2": 57120,
      "FONT": "Consolas",
      "SUPERCOLLIDER": "",
      "BOOT_ON_STARTUP": false,
      "SC3_PLUGINS": false,
      "MAX_CHANNELS": 2,
      "SAMPLES_DIR": "",
      "SAMPLES_PACK_NUMBER": 0,
      "GET_SC_INFO": true,
      "USE_ALPHA": true,
      "ALPHA_VALUE": 0.8,
      "MENU_ON_STARTUP": true,
      "CONSOLE_ON_STARTUP": true,
      "LINENUMBERS_ON_STARTUP": true,
      "TREEVIEW_ON_STARTUP": false,
      "MIDIBAR_ON_STARTUP": false,
      "TRANSPARENT_ON_STARTUP": false,
      "RECOVER_WORK": true,
      "CHECK_FOR_UPDATE": true,
      "LINE_NUMBER_MARKER_OFFSET": 0,
      "AUTO_COMPLETE_BRACKETS": true,
      "CPU_USAGE": 2,
      "CLOCK_LATENCY": 0,
      "FORWARD_ADDRESS": "",
      "FORWARD_PORT": 0,
      "COLOR_THEME": "vapor"
}